
    in /opt/lampp/htdocs/projects/harmony_app/modules/deviation/controllers/DeviationController.php:691
2016-06-09 12:02:06 [1][Athmane][info][user] Required more information for deviation N° 385 [reason: more detials ].
    in /opt/lampp/htdocs/projects/harmony_app/modules/deviation/controllers/DeviationController.php:691
2016-06-09 12:14:55 [1][Athmane][info][user] Deviation discarded [reason: already declared ].
    in /opt/lampp/htdocs/projects/harmony_app/modules/deviation/controllers/DeviationController.php:706
2016-06-09 12:17:20 [1][Athmane][info][user] saved deviation declaration draft.
    in /opt/lampp/htdocs/projects/harmony_app/modules/deviation/controllers/DeviationController.php:484
2016-06-09 12:17:29 [1][Athmane][info][user] Launched a new deviation for approval.
    in /opt/lampp/htdocs/projects/harmony_app/modules/deviation/controllers/DeviationController.php:509
2016-06-09 12:17:35 [1][Athmane][info][user] Approval sent to [ManagerA].
    in /opt/lampp/htdocs/projects/harmony_app/modules/deviation/controllers/DeviationController.php:527
2016-06-09 12:17:46 [1][Athmane][info][user] Required more information for deviation N° 403 [reason: more ].
    in /opt/lampp/htdocs/projects/harmony_app/modules/deviation/controllers/DeviationController.php:691
2016-06-09 12:35:55 [1][Athmane][info][user] saved deviation declaration draft.
    in /opt/lampp/htdocs/projects/harmony_app/modules/deviation/controllers/DeviationController.php:484
2016-06-09 12:57:53 [1][Athmane][info][user] saved deviation declaration draft.
    in /opt/lampp/htdocs/projects/harmony_app/modules/deviation/controllers/DeviationController.php:484
2016-06-09 12:58:01 [1][Athmane][info][user] Launched a new deviation for approval.
    in /opt/lampp/htdocs/projects/harmony_app/modules/deviation/controllers/DeviationController.php:509
2016-06-09 12:58:06 [1][Athmane][info][user] Approval sent to [ManagerA].
    in /opt/lampp/htdocs/projects/harmony_app/modules/deviation/controllers/DeviationController.php:527
2016-06-09 12:58:20 [1][Athmane][info][user] Approved deviation N° 404 .
    in /opt/lampp/htdocs/projects/harmony_app/modules/deviation/controllers/DeviationController.php:636
2016-06-09 12:58:24 [1][Athmane][info][user] Required quality expertise from [QualityExpertA ] for deviation N° 404 .
    in /opt/lampp/htdocs/projects/harmony_app/modules/deviation/controllers/DeviationController.php:667
2016-06-09 12:58:24 [1][Athmane][info][user] Rated deviation N° 404 as level [Medium].
    in /opt/lampp/htdocs/projects/harmony_app/modules/deviation/controllers/DeviationController.php:677
2016-06-09 13:06:40 [1][Athmane][info][user] Launched a new deviation for approval.
    in /opt/lampp/htdocs/projects/harmony_app/modules/deviation/controllers/DeviationController.php:509
2016-06-09 13:06:44 [1][Athmane][info][user] Approval sent to [ManagerA].
    in /opt/lampp/htdocs/projects/harmony_app/modules/deviation/controllers/DeviationController.php:527
2016-06-09 13:18:36 [1][Athmane][info][user] Required more information for deviation N° 406 [reason: more ].
    in /opt/lampp/htdocs/projects/harmony_app/modules/deviation/controllers/DeviationController.php:693
2016-06-09 13:19:18 [1][Athmane][info][user] Launched a new deviation for approval.
    in /opt/lampp/htdocs/projects/harmony_app/modules/deviation/controllers/DeviationController.php:509
2016-06-09 13:19:24 [1][Athmane][info][user] Approval sent to [ManagerA].
    in /opt/lampp/htdocs/projects/harmony_app/modules/deviation/controllers/DeviationController.php:527
2016-06-09 13:19:37 [1][Athmane][info][user] Required more information for deviation N° 407 [reason: more ].
    in /opt/lampp/htdocs/projects/harmony_app/modules/deviation/controllers/DeviationController.php:693
2016-06-09 13:41:59 [1][Athmane][info][user] saved deviation declaration draft.
    in /opt/lampp/htdocs/projects/harmony_app/modules/deviation/controllers/DeviationController.php:495
2016-06-09 13:42:23 [1][Athmane][info][user] saved deviation declaration draft.
    in /opt/lampp/htdocs/projects/harmony_app/modules/deviation/controllers/DeviationController.php:495
2016-06-09 13:42:33 [1][Athmane][info][user] saved deviation declaration draft.
    in /opt/lampp/htdocs/projects/harmony_app/modules/deviation/controllers/DeviationController.php:495
2016-06-09 13:42:49 [1][Athmane][info][user] saved deviation declaration draft.
    in /opt/lampp/htdocs/projects/harmony_app/modules/deviation/controllers/DeviationController.php:495
2016-06-09 13:43:04 [1][Athmane][info][user] saved deviation declaration draft.
    in /opt/lampp/htdocs/projects/harmony_app/modules/deviation/controllers/DeviationController.php:495
2016-06-09 13:43:18 [1][Athmane][info][user] saved deviation declaration draft.
    in /opt/lampp/htdocs/projects/harmony_app/modules/deviation/controllers/DeviationController.php:495
2016-06-09 13:43:31 [1][Athmane][info][user] Launched a new deviation for approval.
    in /opt/lampp/htdocs/projects/harmony_app/modules/deviation/controllers/DeviationController.php:521
2016-06-09 13:43:36 [1][Athmane][info][user] Approval sent to [ManagerA].
    in /opt/lampp/htdocs/projects/harmony_app/modules/deviation/controllers/DeviationController.php:539
2016-06-09 13:57:13 [1][Athmane][info][user] Required more information for deviation N° 408 [reason: testt ].
    in /opt/lampp/htdocs/projects/harmony_app/modules/deviation/controllers/DeviationController.php:705
2016-06-09 13:57:22 [1][Athmane][info][user] saved deviation declaration draft.
    in /opt/lampp/htdocs/projects/harmony_app/modules/deviation/controllers/DeviationController.php:495
2016-06-09 13:57:32 [1][Athmane][info][user] Launched a new deviation for approval.
    in /opt/lampp/htdocs/projects/harmony_app/modules/deviation/controllers/DeviationController.php:521
2016-06-09 13:57:36 [1][Athmane][info][user] Approval sent to [ManagerA].
    in /opt/lampp/htdocs/projects/harmony_app/modules/deviation/controllers/DeviationController.php:539
2016-06-09 13:57:57 [1][Athmane][info][user] Approved deviation N° 409 .
    in /opt/lampp/htdocs/projects/harmony_app/modules/deviation/controllers/DeviationController.php:648
2016-06-09 13:58:03 [1][Athmane][info][user] Required quality expertise from [QualityExpertA ] for deviation N° 409 .
    in /opt/lampp/htdocs/projects/harmony_app/modules/deviation/controllers/DeviationController.php:679
2016-06-09 13:58:03 [1][Athmane][info][user] Rated deviation N° 409 as level [Major].
    in /opt/lampp/htdocs/projects/harmony_app/modules/deviation/controllers/DeviationController.php:689
2016-06-09 14:48:11 [-][-][info][user] Investigation opened for deviation N° 409.
    in /opt/lampp/htdocs/projects/harmony_app/modules/deviation/controllers/InvestigationController.php:161
2016-06-09 14:48:16 [-][-][info][user] Investigation assigned to [InvestigatorA] for deviation N° 409.
    in /opt/lampp/htdocs/projects/harmony_app/modules/deviation/controllers/InvestigationController.php:178
2016-06-09 14:48:16 [-][-][info][user] Deviation N° 409 prelimenary rate [Medium].
    in /opt/lampp/htdocs/projects/harmony_app/modules/deviation/controllers/InvestigationController.php:207
2016-06-09 14:49:48 [-][-][info][user] Investigation finished for deviation N° 409.
    in /opt/lampp/htdocs/projects/harmony_app/modules/deviation/controllers/InvestigationController.php:438
2016-06-09 14:49:48 [-][-][info][user] Final rate for deviation N° 409 [Minor].
    in /opt/lampp/htdocs/projects/harmony_app/modules/deviation/controllers/InvestigationController.php:466
2016-06-09 14:50:20 [1][Athmane][info][user] Approved deviation N° 405 .
    in /opt/lampp/htdocs/projects/harmony_app/modules/deviation/controllers/DeviationController.php:648
2016-06-09 14:50:24 [1][Athmane][info][user] Required quality expertise from [QualityExpertA ] for deviation N° 405 .
    in /opt/lampp/htdocs/projects/harmony_app/modules/deviation/controllers/DeviationController.php:679
2016-06-09 14:50:24 [1][Athmane][info][user] Rated deviation N° 405 as level [Minor].
    in /opt/lampp/htdocs/projects/harmony_app/modules/deviation/controllers/DeviationController.php:689
2016-06-09 14:50:43 [1][Athmane][info][user] Final rate for deviation N° 405 [Medium].
    in /opt/lampp/htdocs/projects/harmony_app/modules/deviation/controllers/InvestigationController.php:250
2016-06-09 14:50:43 [1][Athmane][info][user] Investigation skipped for deviation N° 405 by [reason: alread yhappened].
    in /opt/lampp/htdocs/projects/harmony_app/modules/deviation/controllers/InvestigationController.php:278
2016-06-09 15:04:43 [-][-][info][user] Conclusion saved for deviation N° 409.
    in /opt/lampp/htdocs/projects/harmony_app/modules/deviation/controllers/ConclusionController.php:190
2016-06-09 15:09:22 [-][-][info][user] Conclusion disapproved for deviation N° 409.
    in /opt/lampp/htdocs/projects/harmony_app/modules/deviation/controllers/ConclusionController.php:262
2016-06-09 15:09:30 [-][-][info][user] Conclusion approved for deviation N° 409.
    in /opt/lampp/htdocs/projects/harmony_app/modules/deviation/controllers/ConclusionController.php:291
2016-06-09 15:09:49 [-][-][info][user] Conclusion in signing phase for deviation N° 409.
    in /opt/lampp/htdocs/projects/harmony_app/modules/deviation/controllers/ConclusionController.php:182
2016-06-09 15:10:57 [-][-][info][user] Conclusion approved for deviation N° 409.
    in /opt/lampp/htdocs/projects/harmony_app/modules/deviation/controllers/ConclusionController.php:291
2016-06-09 15:11:17 [-][-][info][user] Conclusion approved for deviation N° 409.
    in /opt/lampp/htdocs/projects/harmony_app/modules/deviation/controllers/ConclusionController.php:291
2016-06-09 15:11:47 [-][-][info][user] Conclusion disapproved for deviation N° 409.
    in /opt/lampp/htdocs/projects/harmony_app/modules/deviation/controllers/ConclusionController.php:262
2016-06-09 15:11:53 [-][-][info][user] Conclusion approved for deviation N° 409.
    in /opt/lampp/htdocs/projects/harmony_app/modules/deviation/controllers/ConclusionController.php:291
2016-06-09 15:11:54 [-][-][info][user] Conclusion in signing phase for deviation N° 409.
    in /opt/lampp/htdocs/projects/harmony_app/modules/deviation/controllers/ConclusionController.php:182
2016-06-09 15:12:04 [-][-][info][user] Conclusion approved for deviation N° 409.
    in /opt/lampp/htdocs/projects/harmony_app/modules/deviation/controllers/ConclusionController.php:291
2016-06-09 15:12:09 [-][-][info][user] Conclusion approved for deviation N° 409.
    in /opt/lampp/htdocs/projects/harmony_app/modules/deviation/controllers/ConclusionController.php:291
2016-06-09 15:12:09 [-][-][info][user] Conclusion finished for deviation N° 409.
    in /opt/lampp/htdocs/projects/harmony_app/modules/deviation/controllers/ConclusionController.php:301
2016-06-09 15:16:26 [1][Athmane][info][user] Launched a new deviation for approval.
    in /opt/lampp/htdocs/projects/harmony_app/modules/deviation/controllers/DeviationController.php:521
2016-06-09 15:16:33 [1][Athmane][info][user] Approval sent to [ManagerA].
    in /opt/lampp/htdocs/projects/harmony_app/modules/deviation/controllers/DeviationController.php:539
2016-06-09 15:16:50 [1][Athmane][info][user] Approved deviation N° 410 .
    in /opt/lampp/htdocs/projects/harmony_app/modules/deviation/controllers/DeviationController.php:648
2016-06-09 15:16:54 [1][Athmane][info][user] Required quality expertise from [QualityExpertA ] for deviation N° 410 .
    in /opt/lampp/htdocs/projects/harmony_app/modules/deviation/controllers/DeviationController.php:679
2016-06-09 15:16:54 [1][Athmane][info][user] Rated deviation N° 410 as level [Medium].
    in /opt/lampp/htdocs/projects/harmony_app/modules/deviation/controllers/DeviationController.php:689
2016-06-09 15:17:07 [-][-][info][user] Investigation opened for deviation N° 410.
    in /opt/lampp/htdocs/projects/harmony_app/modules/deviation/controllers/InvestigationController.php:161
2016-06-09 15:17:12 [-][-][info][user] Investigation assigned to [InvestigatorA] for deviation N° 410.
    in /opt/lampp/htdocs/projects/harmony_app/modules/deviation/controllers/InvestigationController.php:178
2016-06-09 15:17:12 [-][-][info][user] Deviation N° 410 prelimenary rate [Medium].
    in /opt/lampp/htdocs/projects/harmony_app/modules/deviation/controllers/InvestigationController.php:207
2016-06-09 15:17:58 [-][-][info][user] Investigation saved for deviation N° 410.
    in /opt/lampp/htdocs/projects/harmony_app/modules/deviation/controllers/InvestigationController.php:485
2016-06-09 15:18:15 [-][-][info][user] Investigation saved for deviation N° 410.
    in /opt/lampp/htdocs/projects/harmony_app/modules/deviation/controllers/InvestigationController.php:485
2016-06-09 15:21:26 [1][Athmane][info][user] Launched a new deviation for approval.
    in /opt/lampp/htdocs/projects/harmony_app/modules/deviation/controllers/DeviationController.php:521
2016-06-09 15:21:30 [1][Athmane][info][user] Approval sent to [ManagerA].
    in /opt/lampp/htdocs/projects/harmony_app/modules/deviation/controllers/DeviationController.php:539
2016-06-09 15:21:43 [1][Athmane][info][user] Approved deviation N° 411 .
    in /opt/lampp/htdocs/projects/harmony_app/modules/deviation/controllers/DeviationController.php:648
2016-06-09 15:21:47 [1][Athmane][info][user] Required quality expertise from [QualityExpertA ] for deviation N° 411 .
    in /opt/lampp/htdocs/projects/harmony_app/modules/deviation/controllers/DeviationController.php:679
2016-06-09 15:21:48 [1][Athmane][info][user] Rated deviation N° 411 as level [Medium].
    in /opt/lampp/htdocs/projects/harmony_app/modules/deviation/controllers/DeviationController.php:689
2016-06-09 15:22:14 [-][-][info][user] Investigation opened for deviation N° 411.
    in /opt/lampp/htdocs/projects/harmony_app/modules/deviation/controllers/InvestigationController.php:161
2016-06-09 15:22:19 [-][-][info][user] Investigation assigned to [InvestigatorA] for deviation N° 411.
    in /opt/lampp/htdocs/projects/harmony_app/modules/deviation/controllers/InvestigationController.php:178
2016-06-09 15:22:19 [-][-][info][user] Deviation N° 411 prelimenary rate [Major].
    in /opt/lampp/htdocs/projects/harmony_app/modules/deviation/controllers/InvestigationController.php:207
2016-06-09 15:22:30 [-][-][info][user] Investigation saved for deviation N° 411.
    in /opt/lampp/htdocs/projects/harmony_app/modules/deviation/controllers/InvestigationController.php:402
2016-06-22 10:01:41 [1][Athmane][info][user] Launched a new deviation for approval.
    in /opt/lampp/htdocs/projects/harmony_app/modules/deviation/controllers/DeviationController.php:522
2016-06-22 10:01:47 [1][Athmane][info][user] Approval sent to [ManagerA].
    in /opt/lampp/htdocs/projects/harmony_app/modules/deviation/controllers/DeviationController.php:540
2016-06-22 10:14:37 [1][Athmane][info][user] [Athmane] Approved deviation N° 412 .
    in /opt/lampp/htdocs/projects/harmony_app/modules/deviation/controllers/DeviationController.php:656
2016-06-22 10:14:41 [1][Athmane][info][user] Required quality expertise from [QualityExpertA ] for deviation N° 412 .
    in /opt/lampp/htdocs/projects/harmony_app/modules/deviation/controllers/DeviationController.php:687
2016-06-22 10:14:41 [1][Athmane][info][user] Rated deviation N° 412 as level [Medium].
    in /opt/lampp/htdocs/projects/harmony_app/modules/deviation/controllers/DeviationController.php:697
2016-06-22 10:37:26 [1][Athmane][info][user] Launched a new deviation for approval.
    in /opt/lampp/htdocs/projects/harmony_app/modules/deviation/controllers/DeviationController.php:523
2016-06-22 10:37:30 [1][Athmane][info][user] Approval sent to [ManagerA].
    in /opt/lampp/htdocs/projects/harmony_app/modules/deviation/controllers/DeviationController.php:541
2016-06-22 10:39:39 [1][Athmane][info][user] Approved deviation N° 413 .
    in /opt/lampp/htdocs/projects/harmony_app/modules/deviation/controllers/DeviationController.php:658
2016-06-22 10:39:44 [1][Athmane][info][user] Required quality expertise from [QualityExpertA ] for deviation N° 413 .
    in /opt/lampp/htdocs/projects/harmony_app/modules/deviation/controllers/DeviationController.php:689
2016-06-22 10:39:44 [1][Athmane][info][user] Rated deviation N° 413 as level [Minor].
    in /opt/lampp/htdocs/projects/harmony_app/modules/deviation/controllers/DeviationController.php:699
2016-06-22 10:53:57 [-][-][info][user] Investigation opened for deviation N° 413.
    in /opt/lampp/htdocs/projects/harmony_app/modules/deviation/controllers/InvestigationController.php:163
2016-06-22 10:54:02 [-][-][info][user] Investigation assigned to [InvestigatorA] for deviation N° 413.
    in /opt/lampp/htdocs/projects/harmony_app/modules/deviation/controllers/InvestigationController.php:180
2016-06-22 10:54:02 [-][-][info][user] Deviation N° 413 prelimenary rate [Minor].
    in /opt/lampp/htdocs/projects/harmony_app/modules/deviation/controllers/InvestigationController.php:209
2016-06-22 10:54:23 [-][-][info][user] Investigation opened for deviation N° 413.
    in /opt/lampp/htdocs/projects/harmony_app/modules/deviation/controllers/InvestigationController.php:164
2016-06-22 10:54:29 [-][-][info][user] Investigation assigned to [InvestigatorA] for deviation N° 413.
    in /opt/lampp/htdocs/projects/harmony_app/modules/deviation/controllers/InvestigationController.php:181
2016-06-22 10:55:41 [1][Athmane][info][user] Launched a new deviation for approval.
    in /opt/lampp/htdocs/projects/harmony_app/modules/deviation/controllers/DeviationController.php:523
2016-06-22 10:55:45 [1][Athmane][info][user] Approval sent to [ManagerA].
    in /opt/lampp/htdocs/projects/harmony_app/modules/deviation/controllers/DeviationController.php:541
2016-06-22 10:55:56 [1][Athmane][info][user] Approved deviation N° 414 .
    in /opt/lampp/htdocs/projects/harmony_app/modules/deviation/controllers/DeviationController.php:658
2016-06-22 10:56:00 [1][Athmane][info][user] Required quality expertise from [QualityExpertA ] for deviation N° 414 .
    in /opt/lampp/htdocs/projects/harmony_app/modules/deviation/controllers/DeviationController.php:689
2016-06-22 10:56:00 [1][Athmane][info][user] Rated deviation N° 414 as level [Minor].
    in /opt/lampp/htdocs/projects/harmony_app/modules/deviation/controllers/DeviationController.php:699
2016-06-22 10:56:08 [1][Athmane][info][user] Investigation opened for deviation N° 414.
    in /opt/lampp/htdocs/projects/harmony_app/modules/deviation/controllers/InvestigationController.php:164
2016-06-22 10:56:13 [1][Athmane][info][user] Investigation assigned to [InvestigatorA] for deviation N° 414.
    in /opt/lampp/htdocs/projects/harmony_app/modules/deviation/controllers/InvestigationController.php:181
2016-06-22 10:56:13 [1][Athmane][info][user] Deviation N° 414 prelimenary rate [Minor].
    in /opt/lampp/htdocs/projects/harmony_app/modules/deviation/controllers/InvestigationController.php:210
2016-06-22 10:56:33 [-][-][info][user] Investigation opened for deviation N° 414.
    in /opt/lampp/htdocs/projects/harmony_app/modules/deviation/controllers/InvestigationController.php:164
2016-06-22 10:56:37 [-][-][info][user] Investigation assigned to [InvestigatorA] for deviation N° 414.
    in /opt/lampp/htdocs/projects/harmony_app/modules/deviation/controllers/InvestigationController.php:181
2016-06-22 10:57:05 [1][Athmane][info][user] Launched a new deviation for approval.
    in /opt/lampp/htdocs/projects/harmony_app/modules/deviation/controllers/DeviationController.php:523
2016-06-22 10:57:10 [1][Athmane][info][user] Approval sent to [ManagerA].
    in /opt/lampp/htdocs/projects/harmony_app/modules/deviation/controllers/DeviationController.php:541
2016-06-22 10:57:20 [1][Athmane][info][user] Approved deviation N° 415 .
    in /opt/lampp/htdocs/projects/harmony_app/modules/deviation/controllers/DeviationController.php:658
2016-06-22 10:57:26 [1][Athmane][info][user] Required quality expertise from [QualityExpertA ] for deviation N° 415 .
    in /opt/lampp/htdocs/projects/harmony_app/modules/deviation/controllers/DeviationController.php:689
2016-06-22 10:57:26 [1][Athmane][info][user] Rated deviation N° 415 as level [Minor].
    in /opt/lampp/htdocs/projects/harmony_app/modules/deviation/controllers/DeviationController.php:699
2016-06-22 10:57:33 [1][Athmane][info][user] Investigation opened for deviation N° 415.
    in /opt/lampp/htdocs/projects/harmony_app/modules/deviation/controllers/InvestigationController.php:164
2016-06-22 10:57:38 [1][Athmane][info][user] Investigation assigned to [InvestigatorA] for deviation N° 415.
    in /opt/lampp/htdocs/projects/harmony_app/modules/deviation/controllers/InvestigationController.php:181
2016-06-22 10:57:38 [1][Athmane][info][user] Deviation N° 415 prelimenary rate [Minor].
    in /opt/lampp/htdocs/projects/harmony_app/modules/deviation/controllers/InvestigationController.php:210
2016-06-22 11:00:02 [-][-][info][user] Investigation finished for deviation N° 415.
    in /opt/lampp/htdocs/projects/harmony_app/modules/deviation/controllers/InvestigationController.php:454
2016-06-22 11:00:02 [-][-][info][user] Final rate for deviation N° 415 [Minor].
    in /opt/lampp/htdocs/projects/harmony_app/modules/deviation/controllers/InvestigationController.php:482
2016-06-22 11:02:35 [1][Athmane][info][user] Investigation finished for deviation N° 414.
    in /opt/lampp/htdocs/projects/harmony_app/modules/deviation/controllers/InvestigationController.php:365
2016-06-22 11:02:35 [1][Athmane][info][user] Final rate for deviation N° 414 [Minor].
    in /opt/lampp/htdocs/projects/harmony_app/modules/deviation/controllers/InvestigationController.php:394
2016-06-22 11:06:23 [1][Athmane][info][user] Launched a new deviation for approval.
    in /opt/lampp/htdocs/projects/harmony_app/modules/deviation/controllers/DeviationController.php:523
2016-06-22 11:06:27 [1][Athmane][info][user] Approval sent to [ManagerA].
    in /opt/lampp/htdocs/projects/harmony_app/modules/deviation/controllers/DeviationController.php:541
2016-06-22 11:06:39 [1][Athmane][info][user] Deviation discarded [reason: tet ].
    in /opt/lampp/htdocs/projects/harmony_app/modules/deviation/controllers/DeviationController.php:736
2016-06-22 11:13:25 [1][Athmane][info][user] Launched a new deviation for approval.
    in /opt/lampp/htdocs/projects/harmony_app/modules/deviation/controllers/DeviationController.php:523
2016-06-22 11:13:31 [1][Athmane][info][user] Approval sent to [ManagerA].
    in /opt/lampp/htdocs/projects/harmony_app/modules/deviation/controllers/DeviationController.php:541
2016-06-22 11:13:49 [1][Athmane][info][user] Approved deviation N° 417 .
    in /opt/lampp/htdocs/projects/harmony_app/modules/deviation/controllers/DeviationController.php:658
2016-06-22 11:13:54 [1][Athmane][info][user] Required quality expertise from [QualityExpertA ] for deviation N° 417 .
    in /opt/lampp/htdocs/projects/harmony_app/modules/deviation/controllers/DeviationController.php:689
2016-06-22 11:13:54 [1][Athmane][info][user] Rated deviation N° 417 as level [Minor].
    in /opt/lampp/htdocs/projects/harmony_app/modules/deviation/controllers/DeviationController.php:699
2016-06-22 11:14:23 [1][Athmane][info][user] Investigation opened for deviation N° 417.
    in /opt/lampp/htdocs/projects/harmony_app/modules/deviation/controllers/InvestigationController.php:164
2016-06-22 11:14:27 [1][Athmane][info][user] Investigation assigned to [InvestigatorA] for deviation N° 417.
    in /opt/lampp/htdocs/projects/harmony_app/modules/deviation/controllers/InvestigationController.php:181
2016-06-22 11:14:27 [1][Athmane][info][user] Deviation N° 417 prelimenary rate [Medium].
    in /opt/lampp/htdocs/projects/harmony_app/modules/deviation/controllers/InvestigationController.php:210
2016-06-22 11:14:48 [1][Athmane][info][user] Investigation finished for deviation N° 417.
    in /opt/lampp/htdocs/projects/harmony_app/modules/deviation/controllers/InvestigationController.php:365
2016-06-22 11:14:48 [1][Athmane][info][user] Final rate for deviation N° 417 [Minor].
    in /opt/lampp/htdocs/projects/harmony_app/modules/deviation/controllers/InvestigationController.php:394
2016-06-22 11:15:05 [-][-][info][user] Conclusion approved for deviation N° 417.
    in /opt/lampp/htdocs/projects/harmony_app/modules/deviation/controllers/ConclusionController.php:291
2016-06-22 11:15:06 [-][-][info][user] Conclusion in signing phase for deviation N° 417.
    in /opt/lampp/htdocs/projects/harmony_app/modules/deviation/controllers/ConclusionController.php:182
2016-06-22 11:15:15 [-][-][info][user] Conclusion approved for deviation N° 417.
    in /opt/lampp/htdocs/projects/harmony_app/modules/deviation/controllers/ConclusionController.php:291
2016-06-22 11:15:20 [-][-][info][user] Conclusion approved for deviation N° 417.
    in /opt/lampp/htdocs/projects/harmony_app/modules/deviation/controllers/ConclusionController.php:291
2016-06-22 11:15:20 [-][-][info][user] Conclusion finished for deviation N° 417.
    in /opt/lampp/htdocs/projects/harmony_app/modules/deviation/controllers/ConclusionController.php:301
2016-06-22 11:28:22 [1][Athmane][info][user] Launched a new deviation for approval.
    in /opt/lampp/htdocs/projects/harmony_app/modules/deviation/controllers/DeviationController.php:523
2016-06-22 11:28:26 [1][Athmane][info][user] Approval sent to [ManagerA].
    in /opt/lampp/htdocs/projects/harmony_app/modules/deviation/controllers/DeviationController.php:541
2016-06-22 11:28:36 [1][Athmane][info][user] Approved deviation N° 418 .
    in /opt/lampp/htdocs/projects/harmony_app/modules/deviation/controllers/DeviationController.php:658
2016-06-22 11:28:42 [1][Athmane][info][user] Required quality expertise from [QualityExpertA ] for deviation N° 418 .
    in /opt/lampp/htdocs/projects/harmony_app/modules/deviation/controllers/DeviationController.php:689
2016-06-22 11:28:42 [1][Athmane][info][user] Rated deviation N° 418 as level [Medium].
    in /opt/lampp/htdocs/projects/harmony_app/modules/deviation/controllers/DeviationController.php:699
2016-06-22 11:28:50 [1][Athmane][info][user] Final rate for deviation N° 418 [Minor].
    in /opt/lampp/htdocs/projects/harmony_app/modules/deviation/controllers/InvestigationController.php:253
2016-06-22 11:28:51 [1][Athmane][info][user] Investigation skipped for deviation N° 418 by [reason: drer].
    in /opt/lampp/htdocs/projects/harmony_app/modules/deviation/controllers/InvestigationController.php:281
2016-06-22 11:29:07 [-][-][info][user] Conclusion approved for deviation N° 418.
    in /opt/lampp/htdocs/projects/harmony_app/modules/deviation/controllers/ConclusionController.php:291
2016-06-22 11:29:08 [-][-][info][user] Conclusion in signing phase for deviation N° 418.
    in /opt/lampp/htdocs/projects/harmony_app/modules/deviation/controllers/ConclusionController.php:182
2016-06-23 12:31:12 [-][-][info][user] Investigation saved for deviation N° 413.
    in /opt/lampp/htdocs/projects/harmony_app/modules/deviation/controllers/InvestigationController.php:413
2016-06-23 15:33:17 [-][-][info][user] Investigation saved for deviation N° 413.
    in /opt/lampp/htdocs/projects/harmony_app/modules/deviation/controllers/InvestigationController.php:503
2016-06-23 15:33:49 [-][-][info][user] Investigation saved for deviation N° 413.
    in /opt/lampp/htdocs/projects/harmony_app/modules/deviation/controllers/InvestigationController.php:502
2016-06-23 15:35:40 [-][-][info][user] Investigation saved for deviation N° 413.
    in /opt/lampp/htdocs/projects/harmony_app/modules/deviation/controllers/InvestigationController.php:502
2016-06-23 16:02:57 [-][-][info][user] Investigation saved for deviation N° 413.
    in /opt/lampp/htdocs/projects/harmony_app/modules/deviation/controllers/InvestigationController.php:503
2016-06-23 16:07:16 [-][-][info][user] Investigation saved for deviation N° 413.
    in /opt/lampp/htdocs/projects/harmony_app/modules/deviation/controllers/InvestigationController.php:503
2016-06-23 16:24:58 [-][-][info][user] Investigation saved for deviation N° 413.
    in /opt/lampp/htdocs/projects/harmony_app/modules/deviation/controllers/InvestigationController.php:503
2016-06-23 16:25:13 [-][-][info][user] Investigation saved for deviation N° 413.
    in /opt/lampp/htdocs/projects/harmony_app/modules/deviation/controllers/InvestigationController.php:503
2016-06-23 16:25:28 [-][-][info][user] Investigation saved for deviation N° 413.
    in /opt/lampp/htdocs/projects/harmony_app/modules/deviation/controllers/InvestigationController.php:503
2016-06-23 16:36:32 [-][-][info][user] Investigation saved for deviation N° 413.
    in /opt/lampp/htdocs/projects/harmony_app/modules/deviation/controllers/InvestigationController.php:415
2016-06-23 17:20:18 [-][-][info][user] Investigation saved for deviation N° 413.
    in /opt/lampp/htdocs/projects/harmony_app/modules/deviation/controllers/InvestigationController.php:508
2016-06-23 17:20:40 [-][-][info][user] Investigation finished for deviation N° 413.
    in /opt/lampp/htdocs/projects/harmony_app/modules/deviation/controllers/InvestigationController.php:461
2016-06-23 17:20:40 [-][-][info][user] Final rate for deviation N° 413 [Minor].
    in /opt/lampp/htdocs/projects/harmony_app/modules/deviation/controllers/InvestigationController.php:489
2016-06-23 17:52:59 [-][-][info][user] Investigation finished for deviation N° 411.
    in /opt/lampp/htdocs/projects/harmony_app/modules/deviation/controllers/InvestigationController.php:463
2016-06-23 17:52:59 [-][-][info][user] Final rate for deviation N° 411 [Minor].
    in /opt/lampp/htdocs/projects/harmony_app/modules/deviation/controllers/InvestigationController.php:491
2016-06-23 18:04:14 [1][Athmane][info][user] Launched a new deviation for approval.
    in /opt/lampp/htdocs/projects/harmony_app/modules/deviation/controllers/DeviationController.php:523
2016-06-23 18:04:19 [1][Athmane][info][user] Approval sent to [ManagerA].
    in /opt/lampp/htdocs/projects/harmony_app/modules/deviation/controllers/DeviationController.php:541
2016-06-23 18:04:27 [1][Athmane][info][user] Approved deviation N° 419 .
    in /opt/lampp/htdocs/projects/harmony_app/modules/deviation/controllers/DeviationController.php:658
2016-06-23 18:04:33 [1][Athmane][info][user] Required quality expertise from [QualityExpertA ] for deviation N° 419 .
    in /opt/lampp/htdocs/projects/harmony_app/modules/deviation/controllers/DeviationController.php:689
2016-06-23 18:04:33 [1][Athmane][info][user] Rated deviation N° 419 as level [Minor].
    in /opt/lampp/htdocs/projects/harmony_app/modules/deviation/controllers/DeviationController.php:699
2016-06-23 18:05:47 [1][Athmane][info][user] Investigation opened for deviation N° 419.
    in /opt/lampp/htdocs/projects/harmony_app/modules/deviation/controllers/InvestigationController.php:167
2016-06-23 18:05:51 [1][Athmane][info][user] Investigation assigned to [InvestigatorA] for deviation N° 419.
    in /opt/lampp/htdocs/projects/harmony_app/modules/deviation/controllers/InvestigationController.php:184
2016-06-23 18:05:51 [1][Athmane][info][user] Deviation N° 419 prelimenary rate [Minor].
    in /opt/lampp/htdocs/projects/harmony_app/modules/deviation/controllers/InvestigationController.php:213
2016-06-23 18:06:01 [-][-][info][user] Investigation saved for deviation N° 419.
    in /opt/lampp/htdocs/projects/harmony_app/modules/deviation/controllers/InvestigationController.php:421
2016-06-23 18:10:43 [-][-][info][user] Investigation finished for deviation N° 419.
    in /opt/lampp/htdocs/projects/harmony_app/modules/deviation/controllers/InvestigationController.php:463
2016-06-23 18:10:43 [-][-][info][user] Final rate for deviation N° 419 [Minor].
    in /opt/lampp/htdocs/projects/harmony_app/modules/deviation/controllers/InvestigationController.php:491
2016-06-23 18:11:01 [-][-][info][user] Conclusion approved for deviation N° 419.
    in /opt/lampp/htdocs/projects/harmony_app/modules/deviation/controllers/ConclusionController.php:291
2016-06-23 18:11:02 [-][-][info][user] Conclusion in signing phase for deviation N° 419.
    in /opt/lampp/htdocs/projects/harmony_app/modules/deviation/controllers/ConclusionController.php:182
2016-06-23 18:11:09 [-][-][info][user] Conclusion approved for deviation N° 419.
    in /opt/lampp/htdocs/projects/harmony_app/modules/deviation/controllers/ConclusionController.php:291
2016-06-23 18:11:14 [-][-][info][user] Conclusion approved for deviation N° 419.
    in /opt/lampp/htdocs/projects/harmony_app/modules/deviation/controllers/ConclusionController.php:291
2016-06-23 18:11:14 [-][-][info][user] Conclusion finished for deviation N° 419.
    in /opt/lampp/htdocs/projects/harmony_app/modules/deviation/controllers/ConclusionController.php:301
2016-06-23 18:16:13 [1][Athmane][info][user] Launched a new deviation for approval.
    in /opt/lampp/htdocs/projects/harmony_app/modules/deviation/controllers/DeviationController.php:523
2016-06-23 18:16:18 [1][Athmane][info][user] Approval sent to [ManagerA].
    in /opt/lampp/htdocs/projects/harmony_app/modules/deviation/controllers/DeviationController.php:541
2016-06-23 18:16:27 [1][Athmane][info][user] Approved deviation N° 420 .
    in /opt/lampp/htdocs/projects/harmony_app/modules/deviation/controllers/DeviationController.php:658
2016-06-23 18:16:31 [1][Athmane][info][user] Required quality expertise from [QualityExpertA ] for deviation N° 420 .
    in /opt/lampp/htdocs/projects/harmony_app/modules/deviation/controllers/DeviationController.php:689
2016-06-23 18:16:31 [1][Athmane][info][user] Rated deviation N° 420 as level [Medium].
    in /opt/lampp/htdocs/projects/harmony_app/modules/deviation/controllers/DeviationController.php:699
2016-06-23 18:16:39 [1][Athmane][info][user] Investigation opened for deviation N° 420.
    in /opt/lampp/htdocs/projects/harmony_app/modules/deviation/controllers/InvestigationController.php:167
2016-06-23 18:16:43 [1][Athmane][info][user] Investigation assigned to [InvestigatorA] for deviation N° 420.
    in /opt/lampp/htdocs/projects/harmony_app/modules/deviation/controllers/InvestigationController.php:184
2016-06-23 18:16:43 [1][Athmane][info][user] Deviation N° 420 prelimenary rate [Minor].
    in /opt/lampp/htdocs/projects/harmony_app/modules/deviation/controllers/InvestigationController.php:213
2016-06-23 18:17:24 [1][Athmane][info][user] Investigation finished for deviation N° 420.
    in /opt/lampp/htdocs/projects/harmony_app/modules/deviation/controllers/InvestigationController.php:373
2016-06-23 18:17:24 [1][Athmane][info][user] Final rate for deviation N° 420 [Minor].
    in /opt/lampp/htdocs/projects/harmony_app/modules/deviation/controllers/InvestigationController.php:402
2016-06-23 18:17:53 [-][-][info][user] Conclusion approved for deviation N° 420.
    in /opt/lampp/htdocs/projects/harmony_app/modules/deviation/controllers/ConclusionController.php:291
2016-06-23 18:17:54 [-][-][info][user] Conclusion in signing phase for deviation N° 420.
    in /opt/lampp/htdocs/projects/harmony_app/modules/deviation/controllers/ConclusionController.php:182
2016-06-23 18:18:03 [-][-][info][user] Conclusion approved for deviation N° 420.
    in /opt/lampp/htdocs/projects/harmony_app/modules/deviation/controllers/ConclusionController.php:291
2016-06-23 18:18:08 [-][-][info][user] Conclusion approved for deviation N° 420.
    in /opt/lampp/htdocs/projects/harmony_app/modules/deviation/controllers/ConclusionController.php:291
2016-06-23 18:18:08 [-][-][info][user] Conclusion finished for deviation N° 420.
    in /opt/lampp/htdocs/projects/harmony_app/modules/deviation/controllers/ConclusionController.php:301
2016-06-23 18:18:59 [1][Athmane][info][user] Launched a new deviation for approval.
    in /opt/lampp/htdocs/projects/harmony_app/modules/deviation/controllers/DeviationController.php:523
2016-06-23 18:19:03 [1][Athmane][info][user] Approval sent to [ManagerA].
    in /opt/lampp/htdocs/projects/harmony_app/modules/deviation/controllers/DeviationController.php:541
2016-06-23 18:19:11 [1][Athmane][info][user] Approved deviation N° 421 .
    in /opt/lampp/htdocs/projects/harmony_app/modules/deviation/controllers/DeviationController.php:658
2016-06-23 18:19:18 [1][Athmane][info][user] Required quality expertise from [QualityExpertA ] for deviation N° 421 .
    in /opt/lampp/htdocs/projects/harmony_app/modules/deviation/controllers/DeviationController.php:689
2016-06-23 18:19:18 [1][Athmane][info][user] Rated deviation N° 421 as level [Minor].
    in /opt/lampp/htdocs/projects/harmony_app/modules/deviation/controllers/DeviationController.php:699
2016-06-23 18:19:24 [1][Athmane][info][user] Investigation opened for deviation N° 421.
    in /opt/lampp/htdocs/projects/harmony_app/modules/deviation/controllers/InvestigationController.php:167
2016-06-23 18:19:30 [1][Athmane][info][user] Investigation assigned to [InvestigatorA] for deviation N° 421.
    in /opt/lampp/htdocs/projects/harmony_app/modules/deviation/controllers/InvestigationController.php:184
2016-06-23 18:19:30 [1][Athmane][info][user] Deviation N° 421 prelimenary rate [Minor].
    in /opt/lampp/htdocs/projects/harmony_app/modules/deviation/controllers/InvestigationController.php:213
2016-06-23 18:19:37 [-][-][info][user] Investigation saved for deviation N° 421.
    in /opt/lampp/htdocs/projects/harmony_app/modules/deviation/controllers/InvestigationController.php:421
2016-06-23 18:19:52 [-][-][info][user] Investigation finished for deviation N° 421.
    in /opt/lampp/htdocs/projects/harmony_app/modules/deviation/controllers/InvestigationController.php:463
2016-06-23 18:19:52 [-][-][info][user] Final rate for deviation N° 421 [Minor].
    in /opt/lampp/htdocs/projects/harmony_app/modules/deviation/controllers/InvestigationController.php:491
2016-06-23 18:23:27 [1][Athmane][info][user] Launched a new deviation for approval.
    in /opt/lampp/htdocs/projects/harmony_app/modules/deviation/controllers/DeviationController.php:523
2016-06-23 18:23:31 [1][Athmane][info][user] Approval sent to [ManagerA].
    in /opt/lampp/htdocs/projects/harmony_app/modules/deviation/controllers/DeviationController.php:541
2016-06-23 18:23:39 [1][Athmane][info][user] Approved deviation N° 422 .
    in /opt/lampp/htdocs/projects/harmony_app/modules/deviation/controllers/DeviationController.php:658
2016-06-23 18:23:43 [1][Athmane][info][user] Required quality expertise from [QualityExpertA ] for deviation N° 422 .
    in /opt/lampp/htdocs/projects/harmony_app/modules/deviation/controllers/DeviationController.php:689
2016-06-23 18:23:43 [1][Athmane][info][user] Rated deviation N° 422 as level [Minor].
    in /opt/lampp/htdocs/projects/harmony_app/modules/deviation/controllers/DeviationController.php:699
2016-06-23 18:23:50 [1][Athmane][info][user] Investigation opened for deviation N° 422.
    in /opt/lampp/htdocs/projects/harmony_app/modules/deviation/controllers/InvestigationController.php:167
2016-06-23 18:23:54 [1][Athmane][info][user] Investigation assigned to [InvestigatorA] for deviation N° 422.
    in /opt/lampp/htdocs/projects/harmony_app/modules/deviation/controllers/InvestigationController.php:184
2016-06-23 18:23:54 [1][Athmane][info][user] Deviation N° 422 prelimenary rate [Minor].
    in /opt/lampp/htdocs/projects/harmony_app/modules/deviation/controllers/InvestigationController.php:213
2016-06-23 18:24:01 [-][-][info][user] Investigation saved for deviation N° 422.
    in /opt/lampp/htdocs/projects/harmony_app/modules/deviation/controllers/InvestigationController.php:421
2016-06-23 18:24:17 [1][Athmane][info][user] Investigation finished for deviation N° 422.
    in /opt/lampp/htdocs/projects/harmony_app/modules/deviation/controllers/InvestigationController.php:470
2016-06-23 18:24:17 [1][Athmane][info][user] Final rate for deviation N° 422 [Minor].
    in /opt/lampp/htdocs/projects/harmony_app/modules/deviation/controllers/InvestigationController.php:498
2016-06-26 14:40:51 [1][Athmane][info][user] saved deviation declaration draft.
    in /opt/lampp/htdocs/projects/harmony_app/modules/deviation/controllers/DeviationController.php:486
2016-06-27 17:05:03 [1][Athmane][info][user] Approved deviation N° 423 .
    in /opt/lampp/htdocs/projects/harmony_app/modules/deviation/controllers/DeviationController.php:658
2016-06-27 17:05:08 [1][Athmane][info][user] Required quality expertise from [QualityExpertA ] for deviation N° 423 .
    in /opt/lampp/htdocs/projects/harmony_app/modules/deviation/controllers/DeviationController.php:689
2016-06-27 17:05:08 [1][Athmane][info][user] Rated deviation N° 423 as level [Medium].
    in /opt/lampp/htdocs/projects/harmony_app/modules/deviation/controllers/DeviationController.php:699
2016-06-27 17:18:58 [-][-][info][user] saved CAPA planification draft.
    in /opt/lampp/htdocs/projects/harmony_app/modules/deviation/controllers/CapaController.php:171
2016-06-27 17:20:04 [1][Athmane][info][user] Created CAPA planification N° 24.
    in /opt/lampp/htdocs/projects/harmony_app/modules/deviation/controllers/CapaController.php:130
2016-06-27 17:20:10 [1][Athmane][info][user] CAPA Implementation N° 24 assigned to athm.kh@gmail.com .
    in /opt/lampp/htdocs/projects/harmony_app/modules/deviation/controllers/CapaController.php:143
2016-06-27 17:20:58 [-][-][info][user] Saved CAPA implementation N° 24.
    in /opt/lampp/htdocs/projects/harmony_app/modules/deviation/controllers/CapaController.php:301
2016-06-27 17:21:04 [-][-][info][user] Finished CAPA implementation N° 24.
    in /opt/lampp/htdocs/projects/harmony_app/modules/deviation/controllers/CapaController.php:296
2016-06-27 17:21:55 [-][-][info][user] Saved CAPA efficacity review N° 24.
    in /opt/lampp/htdocs/projects/harmony_app/modules/deviation/controllers/CapaController.php:338
2016-06-27 17:22:04 [-][-][info][user] Finished CAPA efficacity review N° 24.
    in /opt/lampp/htdocs/projects/harmony_app/modules/deviation/controllers/CapaController.php:334
2016-06-27 17:22:48 [-][-][info][user] saved CAPA planification draft.
    in /opt/lampp/htdocs/projects/harmony_app/modules/deviation/controllers/CapaController.php:171
2016-06-27 17:22:54 [1][Athmane][info][user] Created CAPA planification N° 25.
    in /opt/lampp/htdocs/projects/harmony_app/modules/deviation/controllers/CapaController.php:130
2016-06-27 17:22:59 [1][Athmane][info][user] CAPA Implementation N° 25 assigned to ManagerA .
    in /opt/lampp/htdocs/projects/harmony_app/modules/deviation/controllers/CapaController.php:143
2016-06-27 17:23:30 [-][-][info][user] Saved CAPA implementation N° 25.
    in /opt/lampp/htdocs/projects/harmony_app/modules/deviation/controllers/CapaController.php:301
2016-06-27 17:23:35 [-][-][info][user] Finished CAPA implementation N° 25.
    in /opt/lampp/htdocs/projects/harmony_app/modules/deviation/controllers/CapaController.php:296
2016-06-27 17:24:14 [-][-][info][user] Finished CAPA efficacity review N° 25.
    in /opt/lampp/htdocs/projects/harmony_app/modules/deviation/controllers/CapaController.php:334
2016-06-28 10:37:07 [1][Athmane][info][user] saved deviation declaration draft.
    in /opt/lampp/htdocs/projects/harmony_app/modules/deviation/controllers/DeviationController.php:486
2016-06-28 10:37:42 [1][Athmane][info][user] Launched a new deviation for approval.
    in /opt/lampp/htdocs/projects/harmony_app/modules/deviation/controllers/DeviationController.php:523
2016-06-28 10:37:47 [1][Athmane][info][user] Approval sent to [ManagerA].
    in /opt/lampp/htdocs/projects/harmony_app/modules/deviation/controllers/DeviationController.php:541
2016-06-28 10:38:04 [1][Athmane][info][user] Approved deviation N° 424 .
    in /opt/lampp/htdocs/projects/harmony_app/modules/deviation/controllers/DeviationController.php:658
2016-06-28 10:38:08 [1][Athmane][info][user] Required quality expertise from [QualityExpertA ] for deviation N° 424 .
    in /opt/lampp/htdocs/projects/harmony_app/modules/deviation/controllers/DeviationController.php:689
2016-06-28 10:38:08 [1][Athmane][info][user] Rated deviation N° 424 as level [Minor].
    in /opt/lampp/htdocs/projects/harmony_app/modules/deviation/controllers/DeviationController.php:699
2016-06-28 10:48:34 [1][Athmane][info][user] Investigation opened for deviation N° 424.
    in /opt/lampp/htdocs/projects/harmony_app/modules/deviation/controllers/InvestigationController.php:167
2016-06-28 10:48:39 [1][Athmane][info][user] Investigation assigned to [InvestigatorA] for deviation N° 424.
    in /opt/lampp/htdocs/projects/harmony_app/modules/deviation/controllers/InvestigationController.php:184
2016-06-28 10:48:39 [1][Athmane][info][user] Deviation N° 424 prelimenary rate [Minor].
    in /opt/lampp/htdocs/projects/harmony_app/modules/deviation/controllers/InvestigationController.php:213
2016-06-28 10:54:53 [-][-][info][user] Investigation saved for deviation N° 424.
    in /opt/lampp/htdocs/projects/harmony_app/modules/deviation/controllers/InvestigationController.php:518
2016-06-28 10:58:38 [-][-][info][user] Investigation saved for deviation N° 424.
    in /opt/lampp/htdocs/projects/harmony_app/modules/deviation/controllers/InvestigationController.php:518
2016-06-28 12:19:11 [1][Athmane][info][user] saved CAPA planification draft.
    in /opt/lampp/htdocs/projects/harmony_app/modules/deviation/controllers/CapaController.php:206
2016-06-28 12:21:53 [1][Athmane][info][user] saved CAPA planification draft.
    in /opt/lampp/htdocs/projects/harmony_app/modules/deviation/controllers/CapaController.php:206
2016-06-28 13:09:35 [1][Athmane][info][user] saved CAPA planification draft.
    in /opt/lampp/htdocs/projects/harmony_app/modules/deviation/controllers/CapaController.php:211
2016-06-28 13:23:49 [1][Athmane][info][user] saved CAPA planification draft.
    in /opt/lampp/htdocs/projects/harmony_app/modules/deviation/controllers/CapaController.php:211
2016-06-28 13:28:11 [1][Athmane][info][user] saved CAPA planification draft.
    in /opt/lampp/htdocs/projects/harmony_app/modules/deviation/controllers/CapaController.php:211
2016-06-28 15:12:30 [1][Athmane][info][user] File [serveimage.png ] deleted in deviation N° 28.
    in /opt/lampp/htdocs/projects/harmony_app/modules/deviation/controllers/CapaController.php:410
2016-06-28 15:14:11 [1][Athmane][info][user] saved CAPA planification draft.
    in /opt/lampp/htdocs/projects/harmony_app/modules/deviation/controllers/CapaController.php:215
2016-06-28 15:26:02 [1][Athmane][info][user] saved CAPA planification draft.
    in /opt/lampp/htdocs/projects/harmony_app/modules/deviation/controllers/CapaController.php:216
2016-06-28 15:40:32 [1][Athmane][info][user] saved CAPA planification draft.
    in /opt/lampp/htdocs/projects/harmony_app/modules/deviation/controllers/CapaController.php:216
2016-06-28 15:41:00 [1][Athmane][info][user] saved CAPA planification draft.
    in /opt/lampp/htdocs/projects/harmony_app/modules/deviation/controllers/CapaController.php:216
2016-06-28 15:43:26 [1][Athmane][info][user] File [serveimage.png ] deleted in deviation N° 28.
    in /opt/lampp/htdocs/projects/harmony_app/modules/deviation/controllers/CapaController.php:430
2016-06-28 15:43:30 [1][Athmane][info][user] saved CAPA planification draft.
    in /opt/lampp/htdocs/projects/harmony_app/modules/deviation/controllers/CapaController.php:216
2016-06-28 15:43:53 [1][Athmane][info][user] Created CAPA planification N° 26.
    in /opt/lampp/htdocs/projects/harmony_app/modules/deviation/controllers/CapaController.php:163
2016-06-28 15:43:58 [1][Athmane][info][user] CAPA Implementation N° 26 assigned to ManagerA .
    in /opt/lampp/htdocs/projects/harmony_app/modules/deviation/controllers/CapaController.php:176
2016-06-28 16:12:55 [1][Athmane][info][user] Created CAPA planification N° 27.
    in /opt/lampp/htdocs/projects/harmony_app/modules/deviation/controllers/CapaController.php:163
2016-06-28 16:13:00 [1][Athmane][info][user] CAPA Implementation N° 27 assigned to ManagerA .
    in /opt/lampp/htdocs/projects/harmony_app/modules/deviation/controllers/CapaController.php:176
2016-06-28 16:13:46 [1][Athmane][info][user] saved CAPA planification draft.
    in /opt/lampp/htdocs/projects/harmony_app/modules/deviation/controllers/CapaController.php:216
2016-06-28 16:13:53 [1][Athmane][info][user] saved CAPA planification draft.
    in /opt/lampp/htdocs/projects/harmony_app/modules/deviation/controllers/CapaController.php:216
2016-06-28 16:14:05 [1][Athmane][info][user] Created CAPA planification N° 28.
    in /opt/lampp/htdocs/projects/harmony_app/modules/deviation/controllers/CapaController.php:163
2016-06-28 16:14:09 [1][Athmane][info][user] CAPA Implementation N° 28 assigned to ManagerA .
    in /opt/lampp/htdocs/projects/harmony_app/modules/deviation/controllers/CapaController.php:176
2016-06-28 16:19:45 [1][Athmane][info][user] saved CAPA planification draft.
    in /opt/lampp/htdocs/projects/harmony_app/modules/deviation/controllers/CapaController.php:216
2016-06-28 16:32:32 [1][Athmane][info][user] saved CAPA planification draft.
    in /opt/lampp/htdocs/projects/harmony_app/modules/deviation/controllers/CapaController.php:216
2016-06-28 16:32:39 [1][Athmane][info][user] saved CAPA planification draft.
    in /opt/lampp/htdocs/projects/harmony_app/modules/deviation/controllers/CapaController.php:216
2016-06-28 16:41:17 [1][Athmane][info][user] saved CAPA planification draft.
    in /opt/lampp/htdocs/projects/harmony_app/modules/deviation/controllers/CapaController.php:216
2016-06-28 16:59:24 [1][Athmane][info][user] Created CAPA planification N° 40.
    in /opt/lampp/htdocs/projects/harmony_app/modules/deviation/controllers/CapaController.php:163
2016-06-28 16:59:29 [1][Athmane][info][user] CAPA Implementation N° 40 assigned to ManagerA .
    in /opt/lampp/htdocs/projects/harmony_app/modules/deviation/controllers/CapaController.php:176
2016-06-28 17:03:35 [1][Athmane][info][user] saved CAPA planification draft.
    in /opt/lampp/htdocs/projects/harmony_app/modules/deviation/controllers/CapaController.php:216
2016-06-28 17:03:44 [1][Athmane][info][user] saved CAPA planification draft.
    in /opt/lampp/htdocs/projects/harmony_app/modules/deviation/controllers/CapaController.php:216
2016-06-28 17:03:50 [1][Athmane][info][user] Created CAPA planification N° 41.
    in /opt/lampp/htdocs/projects/harmony_app/modules/deviation/controllers/CapaController.php:163
2016-06-28 17:03:54 [1][Athmane][info][user] CAPA Implementation N° 41 assigned to ManagerA .
    in /opt/lampp/htdocs/projects/harmony_app/modules/deviation/controllers/CapaController.php:176
2016-06-28 17:05:26 [1][Athmane][info][user] saved CAPA planification draft.
    in /opt/lampp/htdocs/projects/harmony_app/modules/deviation/controllers/CapaController.php:216
2016-06-28 17:05:34 [1][Athmane][info][user] saved CAPA planification draft.
    in /opt/lampp/htdocs/projects/harmony_app/modules/deviation/controllers/CapaController.php:216
2016-06-28 17:08:32 [1][Athmane][info][user] Created CAPA planification N° 43.
    in /opt/lampp/htdocs/projects/harmony_app/modules/deviation/controllers/CapaController.php:163
2016-06-28 17:08:37 [1][Athmane][info][user] CAPA Implementation N° 43 assigned to ManagerA .
    in /opt/lampp/htdocs/projects/harmony_app/modules/deviation/controllers/CapaController.php:176
2016-06-28 17:09:12 [1][Athmane][info][user] saved CAPA planification draft.
    in /opt/lampp/htdocs/projects/harmony_app/modules/deviation/controllers/CapaController.php:216
2016-06-28 17:10:29 [1][Athmane][info][user] Created CAPA planification N° 45.
    in /opt/lampp/htdocs/projects/harmony_app/modules/deviation/controllers/CapaController.php:163
2016-06-28 17:10:33 [1][Athmane][info][user] CAPA Implementation N° 45 assigned to ManagerA .
    in /opt/lampp/htdocs/projects/harmony_app/modules/deviation/controllers/CapaController.php:176
2016-06-28 17:11:43 [1][Athmane][info][user] saved CAPA planification draft.
    in /opt/lampp/htdocs/projects/harmony_app/modules/deviation/controllers/CapaController.php:216
2016-06-28 17:11:49 [1][Athmane][info][user] Created CAPA planification N° 46.
    in /opt/lampp/htdocs/projects/harmony_app/modules/deviation/controllers/CapaController.php:163
2016-06-28 17:11:53 [1][Athmane][info][user] CAPA Implementation N° 46 assigned to ManagerA .
    in /opt/lampp/htdocs/projects/harmony_app/modules/deviation/controllers/CapaController.php:176
2016-06-28 17:41:12 [1][Athmane][info][user] saved CAPA planification draft.
    in /opt/lampp/htdocs/projects/harmony_app/modules/deviation/controllers/CapaController.php:216
2016-06-28 17:42:25 [1][Athmane][info][user] File [bird.jpg ] deleted in deviation N° 37.
    in /opt/lampp/htdocs/projects/harmony_app/modules/deviation/controllers/CapaController.php:440
2016-06-28 17:42:42 [1][Athmane][info][user] Created CAPA planification N° 47.
    in /opt/lampp/htdocs/projects/harmony_app/modules/deviation/controllers/CapaController.php:163
2016-06-28 17:42:46 [1][Athmane][info][user] CAPA Implementation N° 47 assigned to ManagerA .
    in /opt/lampp/htdocs/projects/harmony_app/modules/deviation/controllers/CapaController.php:176
2016-06-28 17:43:41 [1][Athmane][info][user] saved CAPA planification draft.
    in /opt/lampp/htdocs/projects/harmony_app/modules/deviation/controllers/CapaController.php:216
2016-06-28 17:51:17 [1][Athmane][info][user] File [bird.jpg ] deleted in deviation N° 38.
    in /opt/lampp/htdocs/projects/harmony_app/modules/deviation/controllers/CapaController.php:440
2016-06-29 14:54:31 [1][Athmane][info][user] saved deviation declaration draft.
    in /opt/lampp/htdocs/projects/harmony_app/modules/deviation/controllers/DeviationController.php:486
2016-06-29 15:29:53 [1][Athmane][info][user] saved deviation declaration draft.
    in /opt/lampp/htdocs/projects/harmony_app/modules/deviation/controllers/DeviationController.php:489
2016-06-29 15:30:43 [1][Athmane][info][user] saved deviation declaration draft.
    in /opt/lampp/htdocs/projects/harmony_app/modules/deviation/controllers/DeviationController.php:489
2016-06-29 15:48:58 [1][Athmane][info][user] File [bird.jpg ] deleted in deviation N° 31.
    in /opt/lampp/htdocs/projects/harmony_app/modules/deviation/controllers/CapaController.php:440
2016-06-29 15:51:03 [1][Athmane][info][user] File [bird.jpg ] deleted in deviation N° 31.
    in /opt/lampp/htdocs/projects/harmony_app/modules/deviation/controllers/CapaController.php:440
2016-06-29 15:53:31 [1][Athmane][info][user] saved deviation declaration draft.
    in /opt/lampp/htdocs/projects/harmony_app/modules/deviation/controllers/DeviationController.php:490
2016-06-29 15:54:10 [1][Athmane][info][user] saved deviation declaration draft.
    in /opt/lampp/htdocs/projects/harmony_app/modules/deviation/controllers/DeviationController.php:490
2016-06-29 15:54:18 [1][Athmane][info][user] saved deviation declaration draft.
    in /opt/lampp/htdocs/projects/harmony_app/modules/deviation/controllers/DeviationController.php:490
2016-06-29 16:05:06 [1][Athmane][info][user] saved deviation declaration draft.
    in /opt/lampp/htdocs/projects/harmony_app/modules/deviation/controllers/DeviationController.php:490
2016-06-29 16:21:58 [1][Athmane][info][user] saved deviation declaration draft.
    in /opt/lampp/htdocs/projects/harmony_app/modules/deviation/controllers/DeviationController.php:490
2016-06-29 16:26:26 [1][Athmane][info][user] saved deviation declaration draft.
    in /opt/lampp/htdocs/projects/harmony_app/modules/deviation/controllers/DeviationController.php:490
2016-06-29 16:27:28 [1][Athmane][info][user] Launched a new deviation for approval.
    in /opt/lampp/htdocs/projects/harmony_app/modules/deviation/controllers/DeviationController.php:530
2016-06-29 16:27:35 [1][Athmane][info][user] Approval sent to [ManagerA].
    in /opt/lampp/htdocs/projects/harmony_app/modules/deviation/controllers/DeviationController.php:548
2016-06-29 16:36:07 [1][Athmane][info][user] Required more information for deviation N° 426 [reason: fdf ].
    in /opt/lampp/htdocs/projects/harmony_app/modules/deviation/controllers/DeviationController.php:728
2016-06-29 16:53:08 [1][Athmane][info][user] File [bird.jpg ] deleted in deviation N° 426.
    in /opt/lampp/htdocs/projects/harmony_app/modules/deviation/controllers/DeviationController.php:933
2016-06-29 16:53:16 [1][Athmane][info][user] File [serveimage.png ] deleted in deviation N° 426.
    in /opt/lampp/htdocs/projects/harmony_app/modules/deviation/controllers/DeviationController.php:933
2016-06-29 16:57:24 [1][Athmane][info][user] Launched a new deviation for approval.
    in /opt/lampp/htdocs/projects/harmony_app/modules/deviation/controllers/DeviationController.php:530
2016-06-29 16:57:28 [1][Athmane][info][user] Approval sent to [ManagerA].
    in /opt/lampp/htdocs/projects/harmony_app/modules/deviation/controllers/DeviationController.php:548
2016-06-29 16:58:09 [1][Athmane][info][user] Approved deviation N° 428 .
    in /opt/lampp/htdocs/projects/harmony_app/modules/deviation/controllers/DeviationController.php:675
2016-06-29 16:58:13 [1][Athmane][info][user] Required quality expertise from [QualityExpertA ] for deviation N° 428 .
    in /opt/lampp/htdocs/projects/harmony_app/modules/deviation/controllers/DeviationController.php:706
2016-06-29 16:58:13 [1][Athmane][info][user] Rated deviation N° 428 as level [Minor].
    in /opt/lampp/htdocs/projects/harmony_app/modules/deviation/controllers/DeviationController.php:716
2016-06-29 17:05:51 [1][Athmane][info][user] saved deviation declaration draft.
    in /opt/lampp/htdocs/projects/harmony_app/modules/deviation/controllers/DeviationController.php:490
2016-06-29 17:23:49 [1][Athmane][info][user] saved deviation declaration draft.
    in /opt/lampp/htdocs/projects/harmony_app/modules/deviation/controllers/DeviationController.php:490
2016-06-29 17:24:07 [1][Athmane][info][user] Launched a new deviation for approval.
    in /opt/lampp/htdocs/projects/harmony_app/modules/deviation/controllers/DeviationController.php:538
2016-06-29 17:24:12 [1][Athmane][info][user] Approval sent to [ManagerA].
    in /opt/lampp/htdocs/projects/harmony_app/modules/deviation/controllers/DeviationController.php:556
2016-06-29 17:24:37 [1][Athmane][info][user] Approved deviation N° 429 .
    in /opt/lampp/htdocs/projects/harmony_app/modules/deviation/controllers/DeviationController.php:686
2016-06-29 17:24:41 [1][Athmane][info][user] Required quality expertise from [QualityExpertA ] for deviation N° 429 .
    in /opt/lampp/htdocs/projects/harmony_app/modules/deviation/controllers/DeviationController.php:717
2016-06-29 17:24:41 [1][Athmane][info][user] Rated deviation N° 429 as level [Minor].
    in /opt/lampp/htdocs/projects/harmony_app/modules/deviation/controllers/DeviationController.php:727
2016-06-30 14:05:14 [1][Athmane][info][user] saved deviation declaration draft.
    in /opt/lampp/htdocs/projects/harmony_app/modules/deviation/controllers/DeviationController.php:490
2016-06-30 14:48:25 [1][Athmane][info][user] saved deviation declaration draft.
    in /opt/lampp/htdocs/projects/harmony_app/modules/deviation/controllers/DeviationController.php:490
2016-06-30 14:51:13 [1][Athmane][info][user] saved deviation declaration draft.
    in /opt/lampp/htdocs/projects/harmony_app/modules/deviation/controllers/DeviationController.php:490
2016-06-30 14:59:55 [1][Athmane][info][user] Launched a new deviation for approval.
    in /opt/lampp/htdocs/projects/harmony_app/modules/deviation/controllers/DeviationController.php:540
2016-06-30 15:00:00 [1][Athmane][info][user] Approval sent to [ManagerA].
    in /opt/lampp/htdocs/projects/harmony_app/modules/deviation/controllers/DeviationController.php:558
2016-06-30 15:00:27 [1][Athmane][info][user] Approved deviation N° 430 .
    in /opt/lampp/htdocs/projects/harmony_app/modules/deviation/controllers/DeviationController.php:689
2016-06-30 15:00:31 [1][Athmane][info][user] Required quality expertise from [QualityExpertA ] for deviation N° 430 .
    in /opt/lampp/htdocs/projects/harmony_app/modules/deviation/controllers/DeviationController.php:720
2016-06-30 15:00:31 [1][Athmane][info][user] Rated deviation N° 430 as level [Minor].
    in /opt/lampp/htdocs/projects/harmony_app/modules/deviation/controllers/DeviationController.php:730
2016-06-30 15:03:40 [1][Athmane][info][user] Investigation opened for deviation N° 430.
    in /opt/lampp/htdocs/projects/harmony_app/modules/deviation/controllers/InvestigationController.php:167
2016-06-30 15:03:44 [1][Athmane][info][user] Investigation assigned to [InvestigatorA] for deviation N° 430.
    in /opt/lampp/htdocs/projects/harmony_app/modules/deviation/controllers/InvestigationController.php:184
2016-06-30 15:03:44 [1][Athmane][info][user] Deviation N° 430 prelimenary rate [Minor].
    in /opt/lampp/htdocs/projects/harmony_app/modules/deviation/controllers/InvestigationController.php:213
2016-06-30 15:05:32 [-][-][info][user] Investigation saved for deviation N° 430.
    in /opt/lampp/htdocs/projects/harmony_app/modules/deviation/controllers/InvestigationController.php:518
2016-06-30 15:05:42 [-][-][info][user] Investigation saved for deviation N° 430.
    in /opt/lampp/htdocs/projects/harmony_app/modules/deviation/controllers/InvestigationController.php:518
2016-06-30 15:07:13 [-][-][info][user] Investigation saved for deviation N° 430.
    in /opt/lampp/htdocs/projects/harmony_app/modules/deviation/controllers/InvestigationController.php:518
2016-06-30 15:13:00 [1][Athmane][info][user] Investigation finished for deviation N° 430.
    in /opt/lampp/htdocs/projects/harmony_app/modules/deviation/controllers/InvestigationController.php:479
2016-06-30 15:13:00 [1][Athmane][info][user] Final rate for deviation N° 430 [Minor].
    in /opt/lampp/htdocs/projects/harmony_app/modules/deviation/controllers/InvestigationController.php:507
2016-06-30 15:22:48 [1][Athmane][info][user] saved deviation declaration draft.
    in /opt/lampp/htdocs/projects/harmony_app/modules/deviation/controllers/DeviationController.php:490
2016-06-30 15:29:35 [1][Athmane][info][user] saved deviation declaration draft.
    in /opt/lampp/htdocs/projects/harmony_app/modules/deviation/controllers/DeviationController.php:490
2016-06-30 15:31:46 [1][Athmane][info][user] saved deviation declaration draft.
    in /opt/lampp/htdocs/projects/harmony_app/modules/deviation/controllers/DeviationController.php:490
2016-06-30 15:32:49 [1][Athmane][info][user] Launched a new deviation for approval.
    in /opt/lampp/htdocs/projects/harmony_app/modules/deviation/controllers/DeviationController.php:540
2016-06-30 15:32:56 [1][Athmane][info][user] Approval sent to [ManagerA].
    in /opt/lampp/htdocs/projects/harmony_app/modules/deviation/controllers/DeviationController.php:558
2016-06-30 15:33:06 [1][Athmane][info][user] Approved deviation N° 431 .
    in /opt/lampp/htdocs/projects/harmony_app/modules/deviation/controllers/DeviationController.php:689
2016-06-30 15:33:11 [1][Athmane][info][user] Required quality expertise from [QualityExpertA ] for deviation N° 431 .
    in /opt/lampp/htdocs/projects/harmony_app/modules/deviation/controllers/DeviationController.php:720
2016-06-30 15:33:11 [1][Athmane][info][user] Rated deviation N° 431 as level [Minor].
    in /opt/lampp/htdocs/projects/harmony_app/modules/deviation/controllers/DeviationController.php:730
2016-06-30 15:35:31 [1][Athmane][info][user] Investigation opened for deviation N° 431.
    in /opt/lampp/htdocs/projects/harmony_app/modules/deviation/controllers/InvestigationController.php:175
2016-06-30 15:35:35 [1][Athmane][info][user] Investigation assigned to [InvestigatorA] for deviation N° 431.
    in /opt/lampp/htdocs/projects/harmony_app/modules/deviation/controllers/InvestigationController.php:192
2016-06-30 15:35:35 [1][Athmane][info][user] Deviation N° 431 prelimenary rate [Minor].
    in /opt/lampp/htdocs/projects/harmony_app/modules/deviation/controllers/InvestigationController.php:221
2016-06-30 15:35:50 [-][-][info][user] Investigation saved for deviation N° 431.
    in /opt/lampp/htdocs/projects/harmony_app/modules/deviation/controllers/InvestigationController.php:434
2016-06-30 15:36:30 [-][-][info][user] Investigation saved for deviation N° 431.
    in /opt/lampp/htdocs/projects/harmony_app/modules/deviation/controllers/InvestigationController.php:530
2016-06-30 15:38:08 [-][-][info][user] File [bird.jpg ] deleted in deviation N° 156.
    in /opt/lampp/htdocs/projects/harmony_app/modules/deviation/controllers/InvestigationController.php:543
2016-06-30 15:38:22 [-][-][info][user] File [serveimage.png ] deleted in deviation N° 156.
    in /opt/lampp/htdocs/projects/harmony_app/modules/deviation/controllers/InvestigationController.php:543
2016-06-30 15:38:33 [-][-][info][user] Investigation saved for deviation N° 431.
    in /opt/lampp/htdocs/projects/harmony_app/modules/deviation/controllers/InvestigationController.php:530
2016-06-30 15:39:11 [1][Athmane][info][user] Investigation finished for deviation N° 431.
    in /opt/lampp/htdocs/projects/harmony_app/modules/deviation/controllers/InvestigationController.php:483
2016-06-30 15:39:11 [1][Athmane][info][user] Final rate for deviation N° 431 [Minor].
    in /opt/lampp/htdocs/projects/harmony_app/modules/deviation/controllers/InvestigationController.php:511
2016-06-30 15:40:39 [1][Athmane][info][user] saved CAPA planification draft.
    in /opt/lampp/htdocs/projects/harmony_app/modules/deviation/controllers/CapaController.php:216
2016-06-30 15:41:05 [1][Athmane][info][user] saved CAPA planification draft.
    in /opt/lampp/htdocs/projects/harmony_app/modules/deviation/controllers/CapaController.php:216
2016-06-30 15:41:10 [1][Athmane][info][user] File [serveimage.png ] deleted in deviation N° 39.
    in /opt/lampp/htdocs/projects/harmony_app/modules/deviation/controllers/CapaController.php:440
2016-06-30 15:41:18 [1][Athmane][info][user] Created CAPA planification N° 48.
    in /opt/lampp/htdocs/projects/harmony_app/modules/deviation/controllers/CapaController.php:163
2016-06-30 15:41:23 [1][Athmane][info][user] CAPA Implementation N° 48 assigned to ManagerA .
    in /opt/lampp/htdocs/projects/harmony_app/modules/deviation/controllers/CapaController.php:176
2016-06-30 16:06:17 [1][Athmane][info][user] Saved CAPA implementation N° 48.
    in /opt/lampp/htdocs/projects/harmony_app/modules/deviation/controllers/CapaController.php:407
2016-06-30 16:06:37 [1][Athmane][info][user] Saved CAPA implementation N° 48.
    in /opt/lampp/htdocs/projects/harmony_app/modules/deviation/controllers/CapaController.php:407
2016-06-30 16:13:23 [1][Athmane][info][user] File [bird.jpg ] deleted in deviation N° 18.
    in /opt/lampp/htdocs/projects/harmony_app/modules/deviation/controllers/CapaController.php:468
2016-06-30 16:13:33 [1][Athmane][info][user] Saved CAPA implementation N° 48.
    in /opt/lampp/htdocs/projects/harmony_app/modules/deviation/controllers/CapaController.php:412
2016-06-30 16:22:18 [1][Athmane][info][user] File [bird.jpg ] deleted in deviation N° 18.
    in /opt/lampp/htdocs/projects/harmony_app/modules/deviation/controllers/CapaController.php:468
2016-06-30 16:22:34 [1][Athmane][info][user] Saved CAPA implementation N° 48.
    in /opt/lampp/htdocs/projects/harmony_app/modules/deviation/controllers/CapaController.php:412
2016-06-30 16:22:49 [1][Athmane][info][user] File [serveimage.png ] deleted in deviation N° 18.
    in /opt/lampp/htdocs/projects/harmony_app/modules/deviation/controllers/CapaController.php:468
2016-06-30 16:23:59 [1][Athmane][info][user] Finished CAPA implementation N° 48.
    in /opt/lampp/htdocs/projects/harmony_app/modules/deviation/controllers/CapaController.php:407
2016-06-30 17:04:29 [1][Athmane][info][user] Saved CAPA efficacity review N° 48.
    in /opt/lampp/htdocs/projects/harmony_app/modules/deviation/controllers/CapaController.php:478
2016-06-30 17:05:35 [1][Athmane][info][user] File [bird.jpg ] deleted in deviation N° 18.
    in /opt/lampp/htdocs/projects/harmony_app/modules/deviation/controllers/CapaController.php:498
2016-06-30 17:06:33 [1][Athmane][info][user] File [bird.jpg ] deleted in deviation N° 18.
    in /opt/lampp/htdocs/projects/harmony_app/modules/deviation/controllers/CapaController.php:498
2016-06-30 17:09:06 [1][Athmane][info][user] Finished CAPA efficacity review N° 48.
    in /opt/lampp/htdocs/projects/harmony_app/modules/deviation/controllers/CapaController.php:474
2016-07-03 13:51:47 [1][Athmane][info][user] saved CAPA planification draft.
    in /opt/lampp/htdocs/projects/harmony_app/modules/deviation/controllers/CapaController.php:216
2016-07-03 13:51:53 [1][Athmane][info][user] Created CAPA planification N° 49.
    in /opt/lampp/htdocs/projects/harmony_app/modules/deviation/controllers/CapaController.php:163
2016-07-03 13:51:58 [1][Athmane][info][user] CAPA Implementation N° 49 assigned to ManagerA .
    in /opt/lampp/htdocs/projects/harmony_app/modules/deviation/controllers/CapaController.php:176
2016-07-03 13:52:11 [1][Athmane][info][user] Finished CAPA implementation N° 49.
    in /opt/lampp/htdocs/projects/harmony_app/modules/deviation/controllers/CapaController.php:432
2016-07-10 13:51:59 [1][Athmane][info][user] saved deviation declaration draft.
    in /opt/lampp/htdocs/projects/harmony_app/modules/deviation/controllers/DeviationController.php:490
2016-07-10 13:52:25 [1][Athmane][info][user] Launched a new deviation for approval.
    in /opt/lampp/htdocs/projects/harmony_app/modules/deviation/controllers/DeviationController.php:540
2016-07-10 13:52:31 [1][Athmane][info][user] Approval sent to [ManagerA].
    in /opt/lampp/htdocs/projects/harmony_app/modules/deviation/controllers/DeviationController.php:558
2016-07-11 10:15:57 [1][Athmane][info][user] Created CAPA planification N° 51.
    in /opt/lampp/htdocs/projects/harmony_app/modules/deviation/controllers/CapaController.php:157
2016-07-11 10:16:01 [1][Athmane][info][user] CAPA Implementation N° 51 assigned to ManagerA .
    in /opt/lampp/htdocs/projects/harmony_app/modules/deviation/controllers/CapaController.php:170
2016-07-11 14:06:42 [1][Athmane][info][user] Conclusion approved for deviation N° 431.
    in /opt/lampp/htdocs/projects/harmony_app/modules/deviation/controllers/ConclusionController.php:314
2016-07-11 14:06:43 [1][Athmane][info][user] Conclusion in signing phase for deviation N° 431.
    in /opt/lampp/htdocs/projects/harmony_app/modules/deviation/controllers/ConclusionController.php:205
2016-07-11 14:41:36 [1][Athmane][info][user] saved deviation declaration draft.
    in /opt/lampp/htdocs/projects/harmony_app/modules/deviation/controllers/DeviationController.php:490
2016-07-11 15:31:44 [1][Athmane][info][user] saved deviation declaration draft.
    in /opt/lampp/htdocs/projects/harmony_app/modules/deviation/controllers/DeviationController.php:507
2016-07-11 15:36:13 [1][Athmane][info][user] Launched a new deviation for approval.
    in /opt/lampp/htdocs/projects/harmony_app/modules/deviation/controllers/DeviationController.php:557
2016-07-11 15:36:18 [1][Athmane][info][user] Approval sent to [ManagerA].
    in /opt/lampp/htdocs/projects/harmony_app/modules/deviation/controllers/DeviationController.php:575
2016-07-11 15:42:36 [1][Athmane][info][user] saved deviation declaration draft.
    in /opt/lampp/htdocs/projects/harmony_app/modules/deviation/controllers/DeviationController.php:512
2016-07-11 16:04:49 [1][Athmane][info][user] saved deviation declaration draft.
    in /opt/lampp/htdocs/projects/harmony_app/modules/deviation/controllers/DeviationController.php:513
2016-07-11 16:04:55 [1][Athmane][info][user] Launched a new deviation for approval.
    in /opt/lampp/htdocs/projects/harmony_app/modules/deviation/controllers/DeviationController.php:563
2016-07-11 16:05:00 [1][Athmane][info][user] Approval sent to [ManagerA].
    in /opt/lampp/htdocs/projects/harmony_app/modules/deviation/controllers/DeviationController.php:581
2016-07-11 16:06:39 [1][Athmane][info][user] Approved deviation N° 434 .
    in /opt/lampp/htdocs/projects/harmony_app/modules/deviation/controllers/DeviationController.php:712
2016-07-11 16:06:44 [1][Athmane][info][user] Required quality expertise from [QualityExpertA ] for deviation N° 434 .
    in /opt/lampp/htdocs/projects/harmony_app/modules/deviation/controllers/DeviationController.php:743
2016-07-11 16:06:44 [1][Athmane][info][user] Rated deviation N° 434 as level [Medium].
    in /opt/lampp/htdocs/projects/harmony_app/modules/deviation/controllers/DeviationController.php:753
2016-07-11 16:09:02 [1][Athmane][info][user] Investigation opened for deviation N° 434.
    in /opt/lampp/htdocs/projects/harmony_app/modules/deviation/controllers/InvestigationController.php:198
2016-07-11 16:09:06 [1][Athmane][info][user] Investigation assigned to [InvestigatorA] for deviation N° 434.
    in /opt/lampp/htdocs/projects/harmony_app/modules/deviation/controllers/InvestigationController.php:215
2016-07-11 16:09:06 [1][Athmane][info][user] Deviation N° 434 prelimenary rate [Minor].
    in /opt/lampp/htdocs/projects/harmony_app/modules/deviation/controllers/InvestigationController.php:244
2016-07-11 16:17:03 [1][Athmane][info][user] Investigation saved for deviation N° 434.
    in /opt/lampp/htdocs/projects/harmony_app/modules/deviation/controllers/InvestigationController.php:457
2016-07-11 16:17:27 [1][Athmane][info][user] Investigation finished for deviation N° 434.
    in /opt/lampp/htdocs/projects/harmony_app/modules/deviation/controllers/InvestigationController.php:506
2016-07-11 16:17:27 [1][Athmane][info][user] Final rate for deviation N° 434 [Minor].
    in /opt/lampp/htdocs/projects/harmony_app/modules/deviation/controllers/InvestigationController.php:534
2016-07-12 12:35:52 [1][Athmane][info][user] Created CAPA planification N° 52.
    in /opt/lampp/htdocs/projects/harmony_app/modules/deviation/controllers/CapaController.php:157
2016-07-12 12:35:57 [1][Athmane][info][user] CAPA Implementation N° 52 assigned to ManagerA .
    in /opt/lampp/htdocs/projects/harmony_app/modules/deviation/controllers/CapaController.php:170
2016-07-12 15:51:25 [1][Athmane][info][user] Finished CAPA implementation N° 52.
    in /opt/lampp/htdocs/projects/harmony_app/modules/deviation/controllers/CapaController.php:426
2016-07-12 15:51:35 [1][Athmane][info][user] Finished CAPA efficacity review N° 52.
    in /opt/lampp/htdocs/projects/harmony_app/modules/deviation/controllers/CapaController.php:468
2016-07-13 10:15:00 [1][Athmane][info][user] Conclusion approved for deviation N° 434.
    in /opt/lampp/htdocs/projects/harmony_app/modules/deviation/controllers/ConclusionController.php:314
2016-07-13 10:15:01 [1][Athmane][info][user] Conclusion in signing phase for deviation N° 434.
    in /opt/lampp/htdocs/projects/harmony_app/modules/deviation/controllers/ConclusionController.php:205
2016-07-13 10:16:54 [1][Athmane][info][user] Conclusion disapproved for deviation N° 434.
    in /opt/lampp/htdocs/projects/harmony_app/modules/deviation/controllers/ConclusionController.php:285
2016-07-13 10:43:50 [1][Athmane][info][user] saved deviation declaration draft.
    in /opt/lampp/htdocs/projects/harmony_app/modules/deviation/controllers/DeviationController.php:513
2016-07-13 10:43:59 [1][Athmane][info][user] saved deviation declaration draft.
    in /opt/lampp/htdocs/projects/harmony_app/modules/deviation/controllers/DeviationController.php:513
2016-07-13 11:13:50 [1][Athmane][info][user] Launched a new deviation for approval.
    in /opt/lampp/htdocs/projects/harmony_app/modules/deviation/controllers/DeviationController.php:563
2016-07-13 11:13:54 [1][Athmane][info][user] Approval sent to [ManagerA].
    in /opt/lampp/htdocs/projects/harmony_app/modules/deviation/controllers/DeviationController.php:581
2016-07-13 11:17:36 [1][Athmane][info][user] saved deviation declaration draft.
    in /opt/lampp/htdocs/projects/harmony_app/modules/deviation/controllers/DeviationController.php:513
2016-07-13 11:18:26 [1][Athmane][info][user] Launched a new deviation for approval.
    in /opt/lampp/htdocs/projects/harmony_app/modules/deviation/controllers/DeviationController.php:563
2016-07-13 11:18:30 [1][Athmane][info][user] Approval sent to [ManagerA].
    in /opt/lampp/htdocs/projects/harmony_app/modules/deviation/controllers/DeviationController.php:581
2016-07-13 11:19:20 [1][Athmane][info][user] saved deviation declaration draft.
    in /opt/lampp/htdocs/projects/harmony_app/modules/deviation/controllers/DeviationController.php:513
2016-07-13 11:37:28 [1][Athmane][info][user] saved deviation declaration draft.
    in /opt/lampp/htdocs/projects/harmony_app/modules/deviation/controllers/DeviationController.php:513
2016-07-13 12:13:41 [1][Athmane][info][user] File [option reel.docx ] deleted in deviation N° 39.
    in /opt/lampp/htdocs/projects/harmony_app/modules/deviation/controllers/DeviationController.php:984
2016-07-13 12:14:38 [1][Athmane][info][user] saved deviation declaration draft.
    in /opt/lampp/htdocs/projects/harmony_app/modules/deviation/controllers/DeviationController.php:513
2016-07-13 12:15:23 [1][Athmane][info][user] saved deviation declaration draft.
    in /opt/lampp/htdocs/projects/harmony_app/modules/deviation/controllers/DeviationController.php:513
2016-07-13 12:18:38 [1][Athmane][info][user] saved deviation declaration draft.
    in /opt/lampp/htdocs/projects/harmony_app/modules/deviation/controllers/DeviationController.php:513
2016-07-13 12:30:47 [1][Athmane][info][user] saved deviation declaration draft.
    in /opt/lampp/htdocs/projects/harmony_app/modules/deviation/controllers/DeviationController.php:513
2016-07-13 12:31:11 [1][Athmane][info][user] File [option reel OptiDev.docx ] deleted in deviation N° 39.
    in /opt/lampp/htdocs/projects/harmony_app/modules/deviation/controllers/DeviationController.php:984
2016-07-13 12:32:23 [1][Athmane][info][user] Launched a new deviation for approval.
    in /opt/lampp/htdocs/projects/harmony_app/modules/deviation/controllers/DeviationController.php:577
2016-07-13 12:32:28 [1][Athmane][info][user] Approval sent to [ManagerA].
    in /opt/lampp/htdocs/projects/harmony_app/modules/deviation/controllers/DeviationController.php:595
2016-07-13 12:32:42 [1][Athmane][info][user] File [declaration_en_francais_13_07_2008.doc ] deleted in deviation N° 437.
    in /opt/lampp/htdocs/projects/harmony_app/modules/deviation/controllers/DeviationController.php:984
2016-07-13 12:32:51 [1][Athmane][info][user] Approved deviation N° 437 .
    in /opt/lampp/htdocs/projects/harmony_app/modules/deviation/controllers/DeviationController.php:726
2016-07-13 12:32:55 [1][Athmane][info][user] Required quality expertise from [QualityExpertA ] for deviation N° 437 .
    in /opt/lampp/htdocs/projects/harmony_app/modules/deviation/controllers/DeviationController.php:757
2016-07-13 12:32:55 [1][Athmane][info][user] Rated deviation N° 437 as level [Minor].
    in /opt/lampp/htdocs/projects/harmony_app/modules/deviation/controllers/DeviationController.php:767
2016-07-13 13:12:21 [1][Athmane][info][user] Launched a new deviation for approval.
    in /opt/lampp/htdocs/projects/harmony_app/modules/deviation/controllers/DeviationController.php:577
2016-07-13 13:12:25 [1][Athmane][info][user] Approval sent to [ManagerA].
    in /opt/lampp/htdocs/projects/harmony_app/modules/deviation/controllers/DeviationController.php:595
2016-07-13 13:14:49 [1][Athmane][info][user] saved deviation declaration draft.
    in /opt/lampp/htdocs/projects/harmony_app/modules/deviation/controllers/DeviationController.php:513
2016-07-13 13:14:54 [1][Athmane][info][user] Launched a new deviation for approval.
    in /opt/lampp/htdocs/projects/harmony_app/modules/deviation/controllers/DeviationController.php:577
2016-07-13 13:14:58 [1][Athmane][info][user] Approval sent to [ManagerA].
    in /opt/lampp/htdocs/projects/harmony_app/modules/deviation/controllers/DeviationController.php:595
2016-07-13 13:16:10 [1][Athmane][info][user] saved deviation declaration draft.
    in /opt/lampp/htdocs/projects/harmony_app/modules/deviation/controllers/DeviationController.php:513
2016-07-13 13:24:08 [1][Athmane][info][user] saved deviation declaration draft.
    in /opt/lampp/htdocs/projects/harmony_app/modules/deviation/controllers/DeviationController.php:513
2016-07-13 13:24:49 [1][Athmane][info][user] saved deviation declaration draft.
    in /opt/lampp/htdocs/projects/harmony_app/modules/deviation/controllers/DeviationController.php:513
2016-07-13 13:35:11 [1][Athmane][info][user] saved deviation declaration draft.
    in /opt/lampp/htdocs/projects/harmony_app/modules/deviation/controllers/DeviationController.php:513
2016-07-13 13:41:44 [1][Athmane][info][user] saved deviation declaration draft.
    in /opt/lampp/htdocs/projects/harmony_app/modules/deviation/controllers/DeviationController.php:513
2016-07-13 13:43:51 [1][Athmane][info][user] saved deviation declaration draft.
    in /opt/lampp/htdocs/projects/harmony_app/modules/deviation/controllers/DeviationController.php:513
2016-07-13 14:15:27 [1][Athmane][info][user] saved deviation declaration draft.
    in /opt/lampp/htdocs/projects/harmony_app/modules/deviation/controllers/DeviationController.php:513
2016-07-13 14:21:21 [1][Athmane][info][user] saved deviation declaration draft.
    in /opt/lampp/htdocs/projects/harmony_app/modules/deviation/controllers/DeviationController.php:513
2016-07-13 14:22:48 [1][Athmane][info][user] saved deviation declaration draft.
    in /opt/lampp/htdocs/projects/harmony_app/modules/deviation/controllers/DeviationController.php:513
2016-07-13 14:36:01 [1][Athmane][info][user] saved deviation declaration draft.
    in /opt/lampp/htdocs/projects/harmony_app/modules/deviation/controllers/DeviationController.php:514
2016-07-13 14:37:25 [1][Athmane][info][user] saved deviation declaration draft.
    in /opt/lampp/htdocs/projects/harmony_app/modules/deviation/controllers/DeviationController.php:514
2016-07-13 14:38:20 [1][Athmane][info][user] saved deviation declaration draft.
    in /opt/lampp/htdocs/projects/harmony_app/modules/deviation/controllers/DeviationController.php:514
2016-07-13 14:38:58 [1][Athmane][info][user] saved deviation declaration draft.
    in /opt/lampp/htdocs/projects/harmony_app/modules/deviation/controllers/DeviationController.php:514
2016-07-13 14:39:44 [1][Athmane][info][user] saved deviation declaration draft.
    in /opt/lampp/htdocs/projects/harmony_app/modules/deviation/controllers/DeviationController.php:514
2016-07-27 09:48:58 [1][Athmane][info][user] a Sauvgardé en brouillon la déclaration de la déviation
    in /opt/lampp/htdocs/projects/harmony_app/modules/deviation/controllers/DeviationController.php:514
2016-07-27 09:53:22 [1][Athmane][info][user] a Sauvgardé en brouillon la déclaration de la déviation
    in /opt/lampp/htdocs/projects/harmony_app/modules/deviation/controllers/DeviationController.php:514
2016-07-27 09:57:41 [1][Athmane][info][user] a Sauvgardé en brouillon la déclaration de la déviation
    in /opt/lampp/htdocs/projects/harmony_app/modules/deviation/controllers/DeviationController.php:514
2016-07-27 10:29:36 [1][Athmane][info][user] a Sauvgardé en brouillon la déclaration de la déviation
    in /opt/lampp/htdocs/projects/harmony_app/modules/deviation/controllers/DeviationController.php:514
2016-07-27 11:26:11 [1][Athmane][info][user] a sauvegardé la planification CAPA.
    in /opt/lampp/htdocs/projects/harmony_app/modules/deviation/controllers/CapaController.php:228
2016-07-27 11:40:10 [1][Athmane][info][user] a sauvegardé la planification CAPA.
    in /opt/lampp/htdocs/projects/harmony_app/modules/deviation/controllers/CapaController.php:241
2016-07-27 14:11:48 [1][Athmane][info][user] a Sauvgardé en brouillon la déclaration de la déviation
    in /opt/lampp/htdocs/projects/harmony_app/modules/deviation/controllers/DeviationController.php:517
